First Name,Last Name,email1,Prefix,Suffix,language,notes,email2,country,address,mobile,organization
vishal,Larson,vishalmahajan087@gmail.com,Mr,Khan,English,this is basically form noida,,India,Tavant Technologies,9990942001,"Tavant Technlogies ,Noida"
aasim,Martin,davidmartin@gmail.com,Mr,Khan,English,this is basically form noida,davidmartintest@gmail.com,India,Tavant Technologies,9990942001,"Tavant Technlogies ,Noida"
